{
  "swagger": "2.0",
  "info": {
    "title": "API V1",
    "version": "v1"
  },
  "paths": {
    "/companies/{id}/complaints": {
      "get": {
        "summary": "list of complaints from company city",
        "tags": [
          "Pets"
        ],
        "produces": [
          "application/json",
          "application/xml"
        ],
        "parameters": [
          {
            "name": "id",
            "in": "path",
            "type": "string",
            "required": true
          }
        ],
        "responses": {
          "200": {
            "description": "name found",
            "schema": {
              "type": "object",
              "properties": {
                "title": {
                  "type": "string"
                },
                "description": {
                  "type": "string"
                },
                "location": {
                  "type": "hash"
                }
              },
              "required": [
                "id"
              ]
            }
          },
          "404": {
            "description": "pet not found"
          }
        }
      }
    }
  }
}